Extrinsic variable selection • flevr
…
                                  family = "binomial")
#> Loading required namespace: ranger
#> Loading required namespace: xgboost
#> Warning in predict.lm(object, newdata, se.fit, scale = 1, type = if (type == :
#> prediction from rank-deficient fit; attr(*, "non-estim") has doubtful cases
# check the SL weights
fit$coef
#>        SL.glm_All SL.ranger.imp_All    SL.xgboost_All 
#>         0.0000000         0.4684959         0.5315041
# extract importance based on the whole Super Learner
sl_importance_all <- extract_importance_SL(
  fit = fit, feature_names = x_names, import_type = "all"
)
sl_importance_all
#> # A tibble: 21 × 2
#>    feature                  rank
#>    <chr>                   <dbl>
#>  1 lab1_telomerase_score    1.94
#>  2 lab3_muc3ac_score        2.06
#>  3 cea                      3.41
#>  4 lab6_ab_score            3.59
#>  5 lab4_glucose_score       4   
#>  6 lab1_actb                6   
#>  7 lab2_fluorescence_score  7.94
#>  8 lab3_muc5ac_score        8.53
#>  9 lab4_areg_score          8.59
#> 10 lab1_molecules_score     8.94
#> # ℹ 11 more rows

Using the ensemble weights here means that weight approximately 0.53
is given to the boosted trees, weight approximately 0.47 is given to the
random forest, while weight 0 is given to the logistic regression
model.

To instead look at the importance of the best individual learner, use
the following code:

sl_importance_best <- extract_importance_SL(
  fit = fit, feature_names = x_names, import_type = "best"
)
sl_importance_best
#> # A tibble: 21 × 2
#>    feature                  rank
#>    <chr>                   <dbl>
#>  1 lab1_telomerase_score       1
#>  2 cea                         2
#>  3 lab3_muc3ac_score           3
#>  4 lab4_glucose_score          4
#>  5 lab6_ab_score               5
#>  6 lab1_actb                   6
#>  7 lab2_fluorescence_score     7
#>  8 lab1_molecules_score        8
#>  9 lab3_muc5ac_score           9
#> 10 lab4_areg_score            10
#> # ℹ 11 more rows

In this case, this shows the importance in the boosted trees.

Finally, to do variable selection, we need to select a threshold
(ideally before looking at the data). In this case, since there are only
24 variables, we choose a threshold of 5.

extrinsic_selected <- extrinsic_selection(
  fit = fit, feature_names = x_names, threshold = 5, import_type = "all"
)
extrinsic_selected
#> # A tibble: 21 × 3
#>    feature                  rank selected
#>    <chr>                   <dbl> <lgl>   
#>  1 lab1_telomerase_score    1.94 TRUE    
#>  2 lab3_muc3ac_score        2.06 TRUE    
#>  3 cea                      3.41 TRUE    
#>  4 lab6_ab_score            3.59 TRUE    
#>  5 lab4_glucose_score       4    TRUE    
#>  6 lab1_actb                6    FALSE   
#>  7 lab2_fluorescence_score  7.94 FALSE   
#>  8 lab3_muc5ac_score        8.53 FALSE   
#>  9 lab4_areg_score          8.59 FALSE   
#> 10 lab1_molecules_score     8.94 FALSE   
#> # ℹ 11 more rows
…
