Intrinsic variable selection • flevr
…
The next step is to choose an error rate to control and a method for
controlling the family-wise error rate. Here, I choose the generalized
family-wise error rate to control overall and choose Holm-adjusted
p-values to control the individual family-wise error rate:

intrinsic_set <- intrinsic_selection(
  spvim_ests = est, sample_size = nrow(x_cc), alpha = 0.2, feature_names = x_names,
  control = list( quantity = "gFWER", base_method = "Holm", k = 1)
)
intrinsic_set
#> # A tibble: 21 × 6
#>    feature                       est p_value adjusted_p_value  rank selected
#>    <chr>                       <dbl>   <dbl>            <dbl> <dbl> <lgl>   
#>  1 lab1_actb               0           0.5                  1    14 FALSE   
#>  2 lab1_molecules_score    0.0422      0.413                1     1 TRUE    
#>  3 lab1_telomerase_score   0           0.5                  1    14 FALSE   
#>  4 lab2_fluorescence_score 0           0.5                  1    14 FALSE   
#>  5 lab3_muc3ac_score       0.0000619   0.500                1     6 FALSE   
#>  6 lab3_muc5ac_score       0           0.5                  1    14 FALSE   
#>  7 lab4_areg_score         0           0.5                  1    14 FALSE   
#>  8 lab4_glucose_score      0.00775     0.482                1     3 FALSE   
#>  9 lab5_mucinous_call      0           0.5                  1    14 FALSE   
#> 10 lab5_neoplasia_v1_call  0.0207      0.449                1     2 FALSE   
#> # ℹ 11 more rows

I could also choose to control the false discovery rate (FDR), again
using Holm-adjusted p-values to control the individual family-wise error
rate:

intrinsic_set_fdr <- intrinsic_selection(
  spvim_ests = est, sample_size = nrow(x_cc), alpha = 0.2, feature_names = x_names,
  control = list( quantity = "FDR", base_method = "Holm", k = 1)
)
intrinsic_set_fdr
#> # A tibble: 21 × 6
#>    feature                       est p_value adjusted_p_value  rank selected
#>    <chr>                       <dbl>   <dbl>            <dbl> <dbl> <lgl>   
#>  1 lab1_actb               0           0.5                  1    14 FALSE   
#>  2 lab1_molecules_score    0.0422      0.413                1     1 FALSE   
#>  3 lab1_telomerase_score   0           0.5                  1    14 FALSE   
#>  4 lab2_fluorescence_score 0           0.5                  1    14 FALSE   
#>  5 lab3_muc3ac_score       0.0000619   0.500                1     6 FALSE   
#>  6 lab3_muc5ac_score       0           0.5                  1    14 FALSE   
#>  7 lab4_areg_score         0           0.5                  1    14 FALSE   
#>  8 lab4_glucose_score      0.00775     0.482                1     3 FALSE   
#>  9 lab5_mucinous_call      0           0.5                  1    14 FALSE   
#> 10 lab5_neoplasia_v1_call  0.0207      0.449                1     2 FALSE   
#> # ℹ 11 more rows
…
Next, we use Rubin’s rules (Rubin 2018)
to combine the variable importance estimates, and use this to perform
variable selection. Here, we control the generalized family-wise error
rate at 5, using Holm-adjusted p-values to control the initial
family-wise error rate.

intrinsic_set <- intrinsic_selection(
  spvim_ests = est_lst, sample_size = nrow(biomarkers),
  feature_names = x_names, alpha = 0.05, 
  control = list(quantity = "gFWER", base_method = "Holm", k = 5)
)
intrinsic_set
#> # A tibble: 21 × 6
#>    feature                     est p_value adjusted_p_value  rank selected
#>    <chr>                     <dbl>   <dbl>            <dbl> <dbl> <lgl>   
#>  1 lab1_actb               0.0322    0.402                1     4 TRUE    
#>  2 lab1_molecules_score    0         0.500                1    20 FALSE   
#>  3 lab1_telomerase_score   0.0342    0.406                1     3 TRUE    
#>  4 lab2_fluorescence_score 0.00935   0.476                1     8 FALSE   
#>  5 lab3_muc3ac_score       0.00538   0.483                1    13 FALSE   
#>  6 lab3_muc5ac_score       0         0.500                1    20 FALSE   
#>  7 lab4_areg_score         0         0.500                1    20 FALSE   
#>  8 lab4_glucose_score      0.00538   0.483                1    14 FALSE   
#>  9 lab5_mucinous_call      0.00161   0.495                1    17 FALSE   
#> 10 lab5_neoplasia_v1_call  0.0130    0.459                1     7 FALSE   
#> # ℹ 11 more rows
…
