Perform intrinsic, ensemble-based variable selection — intrinsic_selection • flevr
…
library("SuperLearner")
est <- vimp::sp_vim(Y = y, X = x, V = 2, type = "auc", SL.library = "SL.glm", 
                    cvControl = list(V = 2))
#> Warning: prediction from rank-deficient fit; attr(*, "non-estim") has doubtful cases
#> Warning: prediction from rank-deficient fit; attr(*, "non-estim") has doubtful cases
#> Warning: prediction from rank-deficient fit; attr(*, "non-estim") has doubtful cases
#> Warning: prediction from rank-deficient fit; attr(*, "non-estim") has doubtful cases
#> Warning: One or more original estimates < 0; returning zero for these indices.
# do intrinsic selection
intrinsic_set <- intrinsic_selection(spvim_ests = est, sample_size = nrow(dat_cc), alpha = 0.2, 
                                     feature_names = feature_nms, 
                                     control = list(quantity = "gFWER", base_method = "Holm", 
                                                    k = 1))
intrinsic_set
#> # A tibble: 22 × 6
#>    feature                     est p_value adjusted_p_value  rank selected
#>    <chr>                     <dbl>   <dbl>            <dbl> <dbl> <lgl>   
#>  1 institution             0         0.500                1    16 FALSE   
#>  2 lab1_actb               0.102     0.267                1     1 TRUE    
#>  3 lab1_molecules_score    0.0547    0.369                1     3 FALSE   
#>  4 lab1_telomerase_score   0.0242    0.443                1     5 FALSE   
#>  5 lab2_fluorescence_score 0.0120    0.470                1     7 FALSE   
#>  6 lab3_muc3ac_score       0.00767   0.480                1     9 FALSE   
#>  7 lab3_muc5ac_score       0         0.500                1    16 FALSE   
#>  8 lab4_areg_score         0         0.500                1    16 FALSE   
#>  9 lab4_glucose_score      0         0.500                1    16 FALSE   
#> 10 lab5_mucinous_call      0         0.500                1    16 FALSE   
#> # ℹ 12 more rows
…
